Photosynthesis and respiration rate calculations
…
Use the time breaks in the sample info to link O2 data with light levels

df <- df %>%
  mutate(intervals = map2(data0, info, function(.x, .y) {
    split(.x, f = cut(as.numeric(.x$Time), breaks = as.numeric(c(.y$Start.time, last(.y$Stop.time))),
                      labels = as.character(.y$Light_Value)))})) %>%
  mutate(data = map(intervals, ~ unnest(tibble(.), .id = "Light_Value")))

## 'data' now contains the O2 data with the corresponding light level as another column
df$data[[1]]

## # A tibble: 6,383 x 4
##    Time     Value  Temp Light_Value
##    <time>   <dbl> <dbl> <chr>      
##  1 10:16:48  201.  28.1 0          
##  2 10:16:49  201.  28.1 0          
##  3 10:16:50  201.  28.1 0          
##  4 10:16:51  201.  28.1 0          
##  5 10:16:52  201.  28.1 0          
##  6 10:16:53  201.  28.1 0          
##  7 10:16:54  201.  28.1 0          
##  8 10:16:55  201.  28.1 0          
##  9 10:16:56  201.  28.1 0          
## 10 10:16:57  201.  28.1 0          
## #  with 6,373 more rows
…
